4.4/LED41_blink_tb.vcd
$date
	Thu Dec 28 21:10:08 2023
$end
$version
	Icarus Verilog
$end
$timescale
	1ps
$end
$scope module testbench $end
$var wire 1 ! led7 $end
$var wire 1 " led6 $end
$var wire 1 # led5 $end
$var wire 1 $ led4 $end
$var wire 1 % led3 $end
$var wire 1 & led2 $end
$var wire 1 ' led1 $end
$var wire 1 ( led0 $end
$var reg 1 ) button2 $end
$var reg 1 * clk $end
$var reg 1 + errores $end
$scope module DUT $end
$var wire 1 * CLK $end
$var wire 1 ) SW2 $end
$var wire 1 , btn_pressed $end
$var wire 1 ! LED7 $end
$var wire 1 " LED6 $end
$var wire 1 # LED5 $end
$var wire 1 $ LED4 $end
$var wire 1 % LED3 $end
$var wire 1 & LED2 $end
$var wire 1 ' LED1 $end
$var wire 1 ( LED0 $end
$var reg 28 - data [27:0] $end
$scope module btn_debouncer $end
$var wire 1 * CLK $end
$var wire 1 ) SW2 $end
$var wire 1 , btn_pressed $end
$var reg 1 . btn_last $end
$var reg 1 / btn_state $end
$var reg 4 0 debounce_count [3:0] $end
$var reg 1 1 pressed $end
$upscope $end
$upscope $end
$upscope $end
$enddefinitions $end
#0
$dumpvars
01
b1111 0
1/
0.
b0 -
0,
0+
0*
0)
0(
0'
0&
0%
0$
0#
0"
0!
$end
#5000
1(
b1 -
1*
#10000
0*
#15000
0(
1'
b10 -
1*
#20000
0*
#25000
1(
b11 -
1*
#30000
0*
#35000
0(
0'
1&
b100 -
1*
#40000
0*
#45000
1(
b101 -
1*
#50000
0*
#55000
0(
1'
b110 -
1*
#60000
0*
#65000
1(
b111 -
1*
#70000
0*
#75000
0(
0'
0&
1%
b1000 -
1*
#80000
0*
#85000
1(
b1001 -
1*
#90000
0*
#95000
0(
1'
b1010 -
1*
#100000
0*
#105000
1(
b1011 -
1*
#110000
0*
#115000
0(
0'
1&
b1100 -
1*
#120000
0*
#125000
1(
b1101 -
1*
#130000
0*
#135000
0(
1'
b1110 -
1*
#140000
0*
#145000
1(
b1111 -
1*
#150000
0*
#155000
0(
0'
0&
0%
1$
b10000 -
1*
#160000
0*
#165000
1(
b10001 -
1*
#170000
0*
#175000
0(
1'
b10010 -
1*
#180000
0*
#185000
1(
b10011 -
1*
#190000
0*
#195000
0(
0'
1&
b10100 -
1*
#200000
0*
#205000
1(
b10101 -
1*
#210000
0*
#215000
0(
1'
b10110 -
1*
#220000
0*
#225000
1(
b10111 -
1*
#230000
0*
#235000
0(
0'
0&
1%
b11000 -
1*
#240000
0*
#245000
1(
b11001 -
1*
#250000
0*
#255000
0(
1'
b11010 -
1*
#260000
0*
#265000
1(
b11011 -
1*
#270000
0*
#275000
0(
0'
1&
b11100 -
1*
#280000
0*
#285000
1(
b11101 -
1*
#290000
0*
#295000
0(
1'
b11110 -
1*
#300000
0*
#305000
1(
b11111 -
1*
#310000
0*
#315000
0(
0'
0&
0%
0$
1#
b100000 -
1*
#320000
0*
#325000
1(
b100001 -
1*
#330000
0*
#335000
0(
1'
b100010 -
1*
#340000
0*
#345000
1(
b100011 -
1*
#350000
0*
#355000
0(
0'
1&
b100100 -
1*
#360000
0*
#365000
1(
b100101 -
1*
#370000
0*
#375000
0(
1'
b100110 -
1*
#380000
0*
#385000
1(
b100111 -
1*
#390000
0*
#395000
0(
0'
0&
1%
b101000 -
1*
#400000
0*
#405000
1(
b101001 -
1*
#410000
0*
#415000
0(
1'
b101010 -
1*
#420000
0*
#425000
1(
b101011 -
1*
#430000
0*
#435000
0(
0'
1&
b101100 -
1*
#440000
0*
#445000
1(
b101101 -
1*
#450000
0*
#455000
0(
1'
b101110 -
1*
#460000
0*
#465000
1(
b101111 -
1*
#470000
0*
#475000
0(
0'
0&
0%
1$
b110000 -
1*
#480000
0*
#485000
1(
b110001 -
1*
#490000
0*
#495000
0(
1'
b110010 -
1*
#500000
0*
1)
#505000
1(
b1110 0
b110011 -
1*
#510000
0*
#515000
0(
0'
1&
b1101 0
b110100 -
1*
#520000
0*
#525000
1(
b1100 0
b110101 -
1*
#530000
0*
#535000
0(
1'
b1011 0
b110110 -
1*
#540000
0*
#545000
1(
b1010 0
b110111 -
1*
#550000
0*
#555000
0(
0'
0&
1%
b1001 0
b111000 -
1*
#560000
0*
#565000
1(
b1000 0
b111001 -
1*
#570000
0*
#575000
0(
1'
b111 0
b111010 -
1*
#580000
0*
#585000
1(
b110 0
b111011 -
1*
#590000
0*
#595000
0(
0'
1&
b101 0
b111100 -
1*
#600000
0*
#605000
1(
b100 0
b111101 -
1*
#610000
0*
#615000
0(
1'
b11 0
b111110 -
1*
#620000
0*
#625000
1(
b10 0
b111111 -
1*
#630000
0*
#635000
0(
0'
0&
0%
0$
0#
1"
b1 0
b1000000 -
1*
#640000
0*
#645000
1(
b0 0
b1000001 -
1*
#650000
0*
#655000
0"
0(
0'
1.
1,
11
b0 -
1*
#660000
0*
#665000
0,
01
1*
#670000
0*
#675000
1(
b1 -
1*
#680000
0*
#685000
0(
1'
b10 -
1*
#690000
0*
#695000
1(
b11 -
1*
#700000
0*
#701000
1+
#705000
0(
0'
1&
b100 -
1*
#710000
0*
#715000
1(
b101 -
1*
#720000
0*
#725000
0(
1'
b110 -
1*
#730000
0*
#735000
1(
b111 -
1*
#740000
0*
#745000
0(
0'
0&
1%
b1000 -
1*
#750000
0*
#755000
1(
b1001 -
1*
#760000
0*
#765000
0(
1'
b1010 -
1*
#770000
0*
#775000
1(
b1011 -
1*
#780000
0*
#785000
0(
0'
1&
b1100 -
1*
#790000
0*
#795000
1(
b1101 -
1*
#800000
0*
#805000
0(
1'
b1110 -
1*
#810000
0*
#815000
1(
b1111 -
1*
#820000
0*
#825000
0(
0'
0&
0%
1$
b10000 -
1*
#830000
0*
#835000
1(
b10001 -
1*
#840000
0*
#845000
0(
1'
b10010 -
1*
#850000
0*
#855000
1(
b10011 -
1*
#860000
0*
#865000
0(
0'
1&
b10100 -
1*
#870000
0*
#875000
1(
b10101 -
1*
#880000
0*
#885000
0(
1'
b10110 -
1*
#890000
0*
#895000
1(
b10111 -
1*
#900000
0*
#905000
0(
0'
0&
1%
b11000 -
1*
#910000
0*
#915000
1(
b11001 -
1*
#920000
0*
#925000
0(
1'
b11010 -
1*
#930000
0*
#935000
1(
b11011 -
1*
#940000
0*
#945000
0(
0'
1&
b11100 -
1*
#950000
0*
#955000
1(
b11101 -
1*
#960000
0*
#965000
0(
1'
b11110 -
1*
#970000
0*
#975000
1(
b11111 -
1*
#980000
0*
#985000
0(
0'
0&
0%
0$
1#
b100000 -
1*
#990000
0*
#995000
1(
b100001 -
1*
#1000000
0*
0)
#1001000
0+
#1005000
0(
1'
b100010 -
1*
#1010000
0*
#1015000
1(
b100011 -
1*
#1020000
0*
#1025000
0(
0'
1&
b100100 -
1*
#1030000
0*
#1035000
1(
b100101 -
1*
#1040000
0*
#1045000
0(
1'
b100110 -
1*
#1050000
0*
#1055000
1(
b100111 -
1*
#1060000
0*
#1065000
0(
0'
0&
1%
b101000 -
1*
#1070000
0*
#1075000
1(
b101001 -
1*
#1080000
0*
#1085000
0(
1'
b101010 -
1*
#1090000
0*
#1095000
1(
b101011 -
1*
#1100000
0*
#1105000
0(
0'
1&
b101100 -
1*
#1110000
0*
#1115000
1(
b101101 -
1*
#1120000
0*
#1125000
0(
1'
b101110 -
1*
#1130000
0*
#1135000
1(
b101111 -
1*
#1140000
0*
#1145000
0(
0'
0&
0%
1$
b110000 -
1*
#1150000
0*
#1155000
1(
b110001 -
1*
#1160000
0*
#1165000
0(
1'
b110010 -
1*
#1170000
0*
#1175000
1(
b110011 -
1*
#1180000
0*
#1185000
0(
0'
1&
b110100 -
1*
#1190000
0*
#1195000
1(
b110101 -
1*
#1200000
0*
#1205000
0(
1'
b110110 -
1*
#1210000
0*
#1215000
1(
b110111 -
1*
#1220000
0*
#1225000
0(
0'
0&
1%
b111000 -
1*
#1230000
0*
#1235000
1(
b111001 -
1*
#1240000
0*
#1245000
0(
1'
b111010 -
1*
#1250000
0*
#1255000
1(
b111011 -
1*
#1260000
0*
#1265000
0(
0'
1&
b111100 -
1*
#1270000
0*
#1275000
1(
b111101 -
1*
#1280000
0*
#1285000
0(
1'
b111110 -
1*
#1290000
0*
#1295000
1(
b111111 -
1*
#1300000
0*
#1305000
0(
0'
0&
0%
0$
0#
1"
b1000000 -
1*
#1310000
0*
#1315000
1(
b1000001 -
1*
#1320000
0*
#1325000
0(
1'
b1000010 -
1*
#1330000
0*
#1335000
1(
b1000011 -
1*
#1340000
0*
#1345000
0(
0'
1&
b1000100 -
1*
#1350000
0*
#1355000
1(
b1000101 -
1*
#1360000
0*
#1365000
0(
1'
b1000110 -
1*
#1370000
0*
#1375000
1(
b1000111 -
1*
#1380000
0*
#1385000
0(
0'
0&
1%
b1001000 -
1*
#1390000
0*
#1395000
1(
b1001001 -
1*
#1400000
0*
#1405000
0(
1'
b1001010 -
1*
#1410000
0*
#1415000
1(
b1001011 -
1*
#1420000
0*
#1425000
0(
0'
1&
b1001100 -
1*
#1430000
0*
#1435000
1(
b1001101 -
1*
#1440000
0*
#1445000
0(
1'
b1001110 -
1*
#1450000
0*
#1455000
1(
b1001111 -
1*
#1460000
0*
#1465000
0(
0'
0&
0%
1$
b1010000 -
1*
#1470000
0*
#1475000
1(
b1010001 -
1*
#1480000
0*
#1485000
0(
1'
b1010010 -
1*
#1490000
0*
#1495000
1(
b1010011 -
1*
